top_test.vcd
$date
	Tue May 09 17:12:23 2023
$end
$version
	Icarus Verilog
$end
$timescale
	1ps
$end
$scope module top_test $end
$scope module u_top_1 $end
$var wire 1 ! ACKD_n $end
$var wire 1 " ACKI_n $end
$var wire 32 # DAD [31:0] $end
$var wire 32 $ DDT [31:0] $end
$var wire 1 % IACK_n $end
$var wire 32 & IAD [31:0] $end
$var wire 32 ' IDT [31:0] $end
$var wire 1 ( MREQ $end
$var wire 3 ) OINT_n [2:0] $end
$var wire 1 * WRITE $end
$var wire 1 + clk $end
$var wire 32 , mem_data [31:0] $end
$var wire 32 - order_data [31:0] $end
$var wire 1 . rst $end
$var wire 1 / zero $end
$var wire 1 0 u_slt $end
$var wire 32 1 srcMem_out_data [31:0] $end
$var wire 1 2 s_slt $end
$var wire 5 3 rs2 [4:0] $end
$var wire 5 4 rs1 [4:0] $end
$var wire 1 5 reg_write $end
$var wire 32 6 reg_data2 [31:0] $end
$var wire 32 7 reg_data1 [31:0] $end
$var wire 5 8 rd [4:0] $end
$var wire 32 9 plusOffset_out_data [31:0] $end
$var wire 32 : plusFour_out_data [31:0] $end
$var wire 32 ; pc_out_data [31:0] $end
$var wire 32 < pc_in_data [31:0] $end
$var wire 1 = pc_ctr $end
$var wire 1 > overflow $end
$var wire 7 ? opcode [6:0] $end
$var wire 32 @ muxPcSrc_out_data [31:0] $end
$var wire 32 A muxAlu_out_data [31:0] $end
$var wire 1 B mem_write $end
$var wire 1 C mem_to_reg $end
$var wire 1 D mem_read $end
$var wire 1 E jump $end
$var wire 1 F jalr $end
$var wire 1 G isload $end
$var wire 32 H imm [31:0] $end
$var wire 7 I funct7 [6:0] $end
$var wire 3 J funct3 [2:0] $end
$var wire 1 K branch $end
$var wire 1 L alu_src $end
$var wire 32 M alu_out_data [31:0] $end
$var wire 3 N alu_op [2:0] $end
$var wire 2 O SIZE [1:0] $end
$scope function size $end
$var reg 3 P funct3 [2:0] $end
$upscope $end
$scope module register $end
$var wire 1 Q clk $end
$var wire 1 R clk_inv $end
$var wire 1 . reset $end
$var wire 1 S wr_n $end
$var wire 5 T wr_addr [4:0] $end
$var wire 5 U rd2_addr [4:0] $end
$var wire 5 V rd1_addr [4:0] $end
$var wire 32 W ram_data2_out [31:0] $end
$var wire 32 X ram_data1_out [31:0] $end
$var wire 32 Y data_in [31:0] $end
$var wire 32 Z data2_out [31:0] $end
$var wire 32 [ data1_out [31:0] $end
$var parameter 32 \ bit_width_depth $end
$var parameter 32 ] data_width $end
$var parameter 32 ^ depth $end
$var parameter 32 _ rst_mode $end
$scope module u_DW_ram_2r_w_s_dff $end
$var wire 1 ` a_rst_n $end
$var wire 1 R clk $end
$var wire 1 a cs_n $end
$var wire 1 . rst_n $end
$var wire 1 S wr_n $end
$var wire 5 b wr_addr [4:0] $end
$var wire 5 c rd2_addr [4:0] $end
$var wire 5 d rd1_addr [4:0] $end
$var wire 1024 e mem_mux2 [1023:0] $end
$var wire 1024 f mem_mux1 [1023:0] $end
$var wire 32 g data_rd2_out [31:0] $end
$var wire 32 h data_rd1_out [31:0] $end
$var wire 32 i data_in [31:0] $end
$var parameter 32 j data_width $end
$var parameter 32 k depth $end
$var parameter 32 l rst_mode $end
$var reg 1024 m mem [1023:0] $end
$var reg 1024 n next_mem [1023:0] $end
$scope begin clk_monitor $end
$upscope $end
$scope begin parameter_check $end
$var integer 32 o param_err_flg [31:0] $end
$upscope $end
$scope begin registers $end
$var integer 32 p i [31:0] $end
$var integer 32 q j [31:0] $end
$upscope $end
$upscope $end
$upscope $end
$scope module u_adder_pcPlusFour $end
$var wire 32 r plusFour_out_data [31:0] $end
$var wire 32 s pc [31:0] $end
$upscope $end
$scope module u_adder_pcPlusOffset $end
$var wire 32 t plusOffset_out_data [31:0] $end
$var wire 32 u pc [31:0] $end
$var wire 32 v offset [31:0] $end
$upscope $end
$scope module u_alu $end
$var wire 32 w dataA [31:0] $end
$var wire 1 > overflow $end
$var wire 1 2 s_slt $end
$var wire 1 0 u_slt $end
$var wire 1 / zero $end
$var wire 32 x dataB [31:0] $end
$var wire 32 y alu_out_data [31:0] $end
$var wire 3 z alu_op [2:0] $end
$scope function result $end
$var reg 32 { A [31:0] $end
$var reg 32 | B [31:0] $end
$var reg 3 } ctrl [2:0] $end
$upscope $end
$upscope $end
$scope module u_decoder $end
$var wire 32 ~ instruction [31:0] $end
$var wire 5 !" rs2 [4:0] $end
$var wire 5 "" rs1 [4:0] $end
$var wire 1 5 reg_write $end
$var wire 5 #" rd [4:0] $end
$var wire 7 $" opcode [6:0] $end
$var wire 1 B mem_write $end
$var wire 1 C mem_to_reg $end
$var wire 1 D mem_read $end
$var wire 1 E jump $end
$var wire 1 F jalr $end
$var wire 1 G isload $end
$var wire 32 %" imm [31:0] $end
$var wire 7 &" funct7 [6:0] $end
$var wire 3 '" funct3 [2:0] $end
$var wire 1 K branch $end
$var wire 1 L alu_src $end
$var wire 3 (" alu_op [2:0] $end
$scope function alu_ctr $end
$var reg 3 )" funct3 [2:0] $end
$var reg 7 *" funct7 [6:0] $end
$var reg 7 +" opcode [6:0] $end
$upscope $end
$scope function alusrc $end
$var reg 7 ," opcode [6:0] $end
$upscope $end
$scope function immidiate $end
$var reg 32 -" instruction [31:0] $end
$var reg 7 ." opcode [6:0] $end
$upscope $end
$scope function memread $end
$var reg 7 /" opcode [6:0] $end
$upscope $end
$scope function memtoreg $end
$var reg 7 0" opcode [6:0] $end
$upscope $end
$scope function memwrite $end
$var reg 7 1" opcode [6:0] $end
$upscope $end
$scope function regwrite $end
$var reg 7 2" opcode [6:0] $end
$upscope $end
$upscope $end
$scope module u_mux_alu $end
$var wire 1 L alu_src $end
$var wire 32 3" imm [31:0] $end
$var wire 32 4" reg_data [31:0] $end
$var wire 32 5" muxAlu_out_data [31:0] $end
$scope function outdata $end
$var reg 1 6" alu_src $end
$var reg 32 7" imm [31:0] $end
$var reg 32 8" reg_data [31:0] $end
$upscope $end
$upscope $end
$scope module u_mux_jalr $end
$var wire 32 9" alu_out [31:0] $end
$var wire 1 F jalr $end
$var wire 32 :" mux_out [31:0] $end
$var wire 32 ;" muxJalr_out_data [31:0] $end
$scope function outdata $end
$var reg 32 <" alu_out [31:0] $end
$var reg 1 =" jalr $end
$var reg 32 >" mux_out [31:0] $end
$upscope $end
$upscope $end
$scope module u_mux_pcsrc $end
$var wire 32 ?" pc_plus_four [31:0] $end
$var wire 32 @" pc_plus_offset [31:0] $end
$var wire 1 = pc_ctr $end
$var wire 32 A" muxPcSrc_out_data [31:0] $end
$scope function pcInData $end
$var reg 1 B" pc_ctr $end
$var reg 32 C" pc_plus_four [31:0] $end
$var reg 32 D" pc_plus_offset [31:0] $end
$upscope $end
$upscope $end
$scope module u_pc $end
$var wire 1 + clk $end
$var wire 1 G isload $end
$var wire 32 E" pc_in_data [31:0] $end
$var wire 1 . rst $end
$var reg 1 F" load_cnt $end
$var reg 32 G" pc_out_data [31:0] $end
$upscope $end
$scope module u_pc_src $end
$var wire 1 K branch $end
$var wire 3 H" funct3 [2:0] $end
$var wire 1 E jump $end
$var wire 1 2 s_slt $end
$var wire 1 0 u_slt $end
$var wire 1 / zero $end
$var wire 1 = pc_ctr $end
$scope function pcctr $end
$var reg 1 I" branch $end
$var reg 3 J" funct3 [2:0] $end
$var reg 1 K" jump $end
$var reg 1 L" s_slt $end
$var reg 1 M" u_slt $end
$var reg 1 N" zero $end
$upscope $end
$upscope $end
$scope module u_src_mem $end
$var wire 32 O" alu_data [31:0] $end
$var wire 32 P" imm [31:0] $end
$var wire 32 Q" mem_data [31:0] $end
$var wire 1 C mem_to_reg $end
$var wire 7 R" opcode [6:0] $end
$var wire 32 S" pc_plus_four [31:0] $end
$var wire 32 T" pc_plus_imm [31:0] $end
$var wire 32 U" srcMem_out_data [31:0] $end
$scope function outdata $end
$var reg 32 V" alu_data [31:0] $end
$var reg 32 W" imm [31:0] $end
$var reg 32 X" mem_data [31:0] $end
$var reg 1 Y" mem_to_reg $end
$var reg 7 Z" opcode [6:0] $end
$var reg 32 [" pc_plus_four [31:0] $end
$var reg 32 \" pc_plus_imm [31:0] $end
$upscope $end
$upscope $end
$upscope $end
$upscope $end
$enddefinitions $end
$comment Show the parameter values. $end
$dumpall
b0 l
b100000 k
b100000 j
b0 _
b100000 ^
b100000 ]
b101 \
$end
#0
$dumpvars
bx \"
bx ["
bx Z"
0Y"
bx X"
bx W"
b0 V"
bx U"
bx T"
bx S"
bx R"
bx Q"
bx P"
b0 O"
1N"
xM"
xL"
xK"
bx J"
xI"
bx H"
bx G"
0F"
bx E"
bx D"
bx C"
xB"
bx A"
bx @"
bx ?"
bx >"
x="
b0 <"
bx ;"
bx :"
b0 9"
bx 8"
bx 7"
06"
bx 5"
bx 4"
bx 3"
bx 2"
bx 1"
bx 0"
bx /"
bx ."
bx -"
bx ,"
bx +"
bx *"
bx )"
bx ("
bx '"
bx &"
bx %"
bx $"
bx #"
bx ""
bx !"
bx ~
bx }
bx |
bx {
bx z
b0 y
bx x
bx w
bx v
bx u
bx t
bx s
bx r
bx q
bx p
b0 o
bx n
bx m
bx i
bx h
bx g
bx f
bx e
bx d
bx c
bx b
0a
1`
bx [
bx Z
bx Y
bx X
bx W
bx V
bx U
bx T
1S
1R
0Q
bx P
bx O
bx N
b0 M
0L
xK
bx J
bx I
bx H
xG
xF
xE
0D
0C
0B
bx A
bx @
bx ?
x>
x=
bx <
bx ;
bx :
bx 9
bx 8
bx 7
bx 6
05
bx 4
bx 3
x2
bx 1
x0
1/
1.
bx -
bx ,
1+
0*
b111 )
0(
bx '
bx &
1%
bx $
b0 #
1"
1!
$end
#1000
b10000000000000100 <
b10000000000000100 ;"
b10000000000000100 E"
b10000000000000100 >"
b10000000000000100 @
b10000000000000100 :"
b10000000000000100 A"
b10000000000000100 C"
b10000000000000100 ["
b0 m
b10000000000000100 :
b10000000000000100 r
b10000000000000100 ?"
b10000000000000100 S"
b10000000000000000 &
b10000000000000000 ;
b10000000000000000 s
b10000000000000000 u
b10000000000000000 G"
0`
0.
#5000
0>
b0 {
b1000000000110000000000000000 7"
b1000000001000000000000000000 D"
0L"
0M"
1N"
b0 <"
b1000000000110000000000000000 1
b1000000000110000000000000000 Y
b1000000000110000000000000000 i
b1000000000110000000000000000 U"
b0 V"
b1000000000110000000000000000 W"
b1000000001000000000000000000 \"
b0 7
b0 [
b0 w
b1000000001000000000000000000 9
b1000000001000000000000000000 t
b1000000001000000000000000000 @"
b1000000001000000000000000000 T"
b1000000000110000000000000000 H
b1000000000110000000000000000 v
b1000000000110000000000000000 %"
b1000000000110000000000000000 3"
b1000000000110000000000000000 P"
0S
02
00
1/
b0 #
b0 M
b0 y
b0 9"
b0 O"
b111 }
b0 |
b0 X
b0 h
b0 W
b0 g
b0 A
b0 x
b0 5"
b0 8"
b110111 ."
15
b110111 2"
b110111 ,"
b110111 0"
b110111 /"
b110111 1"
0="
b0 X"
b110111 Z"
b0 J"
0K"
0I"
b11 O
b0 P
b111 N
b111 z
b111 ("
b100 *"
b0 )"
b110111 +"
b0 ,
b0 Q"
b0 $
b0 6
b0 Z
b0 4"
0R
0E
0K
0F
0G
b110111 ?
b110111 $"
b110111 R"
b0 J
b0 '"
b0 H"
b100 I
b100 &"
b10 8
b10 T
b10 b
b10 #"
b0 f
b110 4
b110 V
b110 d
b110 ""
b0 e
b0 3
b0 U
b0 c
b0 !"
b1000000000110000000100110111 -"
1Q
0"
b1000000000110000000100110111 -
b1000000000110000000100110111 ~
b1000000000110000000100110111 '
0+
#10000
b1011111 q
b100000 p
b10000000001100000000000000000000000000000000000000000000000000000000000000000000000000000000 n
1R
0Q
1+
#11000
1`
1.
#15000
0R
1Q
0+
b0 $
#20000
b10000000000001000 <
b10000000000001000 ;"
b10000000000001000 E"
b10000000000001000 >"
b10000000000001000 @
b10000000000001000 :"
b10000000000001000 A"
b1000000001000000000000000100 D"
b10000000000001000 C"
b10000000000001000 ["
b1000000001000000000000000100 \"
b10000000001100000000000000000000000000000000000000000000000000000000000000000000000000000000 e
b10000000001100000000000000000000000000000000000000000000000000000000000000000000000000000000 m
b1000000001000000000000000100 9
b1000000001000000000000000100 t
b1000000001000000000000000100 @"
b1000000001000000000000000100 T"
b10000000000001000 :
b10000000000001000 r
b10000000000001000 ?"
b10000000000001000 S"
b10000000000000100 &
b10000000000000100 ;
b10000000000000100 s
b10000000000000100 u
b10000000000000100 G"
b1011111 q
b100000 p
b10000000001100000000000000000000000000000000000000000000000000000000000000000000000000000000 n
1R
0Q
1+
#25000
b10000000000010100 <
b10000000000010100 ;"
b10000000000010100 E"
b10000000000010100 >"
b0 }
b10000 7"
b10000000000010100 @
b10000000000010100 :"
b10000000000010100 A"
b10000000000010100 D"
1B"
0R
b1101111 ."
b1101111 2"
b1101111 ,"
1=
1K"
b1101111 0"
b1101111 /"
b1101111 1"
b10000000000001000 1
b10000000000001000 Y
b10000000000001000 i
b10000000000001000 U"
b10000 W"
b10000000000010100 \"
b1101111 Z"
b0 N
b0 z
b0 ("
b0 *"
b1101111 +"
b10000000000010100 9
b10000000000010100 t
b10000000000010100 @"
b10000000000010100 T"
b10000 H
b10000 v
b10000 %"
b10000 3"
b10000 P"
1Q
1E
b1101111 ?
b1101111 $"
b1101111 R"
b0 I
b0 &"
b1 8
b1 T
b1 b
b1 #"
b10000000001100000000000000000000000000000000000000000000000000000000000000000000000000000000 f
b0 4
b0 V
b0 d
b0 ""
b0 e
b10000 3
b10000 U
b10000 c
b10000 !"
b1000000000000000011101111 -"
0+
b1000000000000000011101111 -
b1000000000000000011101111 ~
b1000000000000000011101111 '
b0 $
#30000
b10000000000100100 <
b10000000000100100 ;"
b10000000000100100 E"
b10000000000100100 >"
b10000000000100100 @
b10000000000100100 :"
b10000000000100100 A"
b10000000000100100 D"
b10000000000011000 C"
b10000000000011000 1
b10000000000011000 Y
b10000000000011000 i
b10000000000011000 U"
b10000000000011000 ["
b10000000000100100 \"
b10000000001100000000000000000000000000000001000000000000100000000000000000000000000000000000 f
b10000000001100000000000000000000000000000001000000000000100000000000000000000000000000000000 m
b10000000000100100 9
b10000000000100100 t
b10000000000100100 @"
b10000000000100100 T"
b10000000000011000 :
b10000000000011000 r
b10000000000011000 ?"
b10000000000011000 S"
b10000000000010100 &
b10000000000010100 ;
b10000000000010100 s
b10000000000010100 u
b10000000000010100 G"
b10000000001100000000000000000000000000000001000000000000100000000000000000000000000000000000 n
b111111 q
b100000 p
1R
0Q
1+
#35000
b1000000000110000000000000000 {
b1000000000110000000000000000 7
b1000000000110000000000000000 [
b1000000000110000000000000000 w
0N"
b1000000000101111111111110000 <"
b1000000000101111111111110000 V"
b1000000000110000000000000000 X
b1000000000110000000000000000 h
0/
b1000000000101111111111110000 #
b1000000000101111111111110000 M
b1000000000101111111111110000 y
b1000000000101111111111110000 9"
b1000000000101111111111110000 O"
b11111111111111111111111111110000 |
b10000000000011000 <
b10000000000011000 ;"
b10000000000011000 E"
b10000000000011000 >"
b11111111111111111111111111110000 A
b11111111111111111111111111110000 x
b11111111111111111111111111110000 5"
b11111111111111111111111111110000 7"
16"
b10000000000011000 @
b10000000000011000 :"
b10000000000011000 A"
b10000000000000100 D"
xB"
0R
b10011 ."
b10011 2"
1L
b10011 ,"
x=
0K"
b10011 0"
b10011 /"
b10011 1"
b1000000000101111111111110000 1
b1000000000101111111111110000 Y
b1000000000101111111111110000 i
b1000000000101111111111110000 U"
b11111111111111111111111111110000 W"
b10000000000000100 \"
b10011 Z"
b1111111 *"
b10011 +"
b10000000000000100 9
b10000000000000100 t
b10000000000000100 @"
b10000000000000100 T"
b11111111111111111111111111110000 H
b11111111111111111111111111110000 v
b11111111111111111111111111110000 %"
b11111111111111111111111111110000 3"
b11111111111111111111111111110000 P"
1Q
0E
b10011 ?
b10011 $"
b10011 R"
b1111111 I
b1111111 &"
b10 8
b10 T
b10 b
b10 #"
b1000000000110000000000000000 f
b10 4
b10 V
b10 d
b10 ""
b11111111000000010000000100010011 -"
0+
b11111111000000010000000100010011 -
b11111111000000010000000100010011 ~
b11111111000000010000000100010011 '
b0 $
#40000
b1000000000101111111111100000 <"
b1000000000101111111111100000 1
b1000000000101111111111100000 Y
b1000000000101111111111100000 i
b1000000000101111111111100000 U"
b1000000000101111111111100000 V"
b1000000000101111111111100000 #
b1000000000101111111111100000 M
b1000000000101111111111100000 y
b1000000000101111111111100000 9"
b1000000000101111111111100000 O"
b1000000000101111111111110000 {
b1000000000101111111111110000 7
b1000000000101111111111110000 [
b1000000000101111111111110000 w
b1000000000101111111111110000 X
b1000000000101111111111110000 h
b10000000000011100 <
b10000000000011100 ;"
b10000000000011100 E"
b10000000000011100 >"
b10000000000011100 @
b10000000000011100 :"
b10000000000011100 A"
b10000000000001000 D"
b10000000000011100 C"
b10000000000011100 ["
b10000000000001000 \"
b1000000000101111111111110000 f
b10000000001011111111111100000000000000000001000000000000100000000000000000000000000000000000 m
b10000000000001000 9
b10000000000001000 t
b10000000000001000 @"
b10000000000001000 T"
b10000000000011100 :
b10000000000011100 r
b10000000000011100 ?"
b10000000000011100 S"
b10000000000011000 &
b10000000000011000 ;
b10000000000011000 s
b10000000000011000 u
b10000000000011000 G"
b10000000001011111111111100000000000000000001000000000000100000000000000000000000000000000000 n
b1011111 q
b100000 p
1R
0Q
1+
#45000
b10000000000001000 8"
b10000000000001000 X"
b10000000000001000 ,
b10000000000001000 Q"
b10000000000001000 6
b10000000000001000 Z
b10000000000001000 4"
b1000000000101111111111111100 <"
b1000000000101111111111111100 V"
b10000000000001000 W
b10000000000001000 g
b1000000000101111111111111100 #
b1000000000101111111111111100 M
b1000000000101111111111111100 y
b1000000000101111111111111100 9"
b1000000000101111111111111100 O"
b1100 |
1S
1(
b1100 A
b1100 x
b1100 5"
b1100 7"
b10000000000100100 D"
0R
b100011 ."
05
b100011 2"
b100011 ,"
b100011 0"
b100011 /"
1*
1B
b100011 1"
bx 1
bx Y
bx i
bx U"
b1100 W"
b10000000000100100 \"
b100011 Z"
b10 J"
b0 O
b10 P
b0 *"
b10 )"
b100011 +"
b10000000000100100 9
b10000000000100100 t
b10000000000100100 @"
b10000000000100100 T"
b1100 H
b1100 v
b1100 %"
b1100 3"
b1100 P"
1Q
b100011 ?
b100011 $"
b100011 R"
b10 J
b10 '"
b10 H"
b0 I
b0 &"
b1100 8
b1100 T
b1100 b
b1100 #"
b100000000010111111111111000000000000000000010000000000001000 e
b1 3
b1 U
b1 c
b1 !"
b100010010011000100011 -"
0+
b100010010011000100011 -
b100010010011000100011 ~
b100010010011000100011 '
b10000000000001000 $
#50000
b10000000000100000 <
b10000000000100000 ;"
b10000000000100000 E"
b10000000000100000 >"
b10000000000100000 @
b10000000000100000 :"
b10000000000100000 A"
b10000000000101000 D"
b10000000000100000 C"
b10000000000100000 ["
b10000000000101000 \"
b10000000000101000 9
b10000000000101000 t
b10000000000101000 @"
b10000000000101000 T"
b10000000000100000 :
b10000000000100000 r
b10000000000100000 ?"
b10000000000100000 S"
b10000000000011100 &
b10000000000011100 ;
b10000000000011100 s
b10000000000011100 u
b10000000000011100 G"
1R
0Q
1+
#55000
b0 8"
b0 X"
b0 ,
b0 Q"
b0 6
b0 Z
b0 4"
b1000000000101111111111111000 <"
b1000000000101111111111111000 V"
b0 W
b0 g
b1000000000101111111111111000 #
b1000000000101111111111111000 M
b1000000000101111111111111000 y
b1000000000101111111111111000 9"
b1000000000101111111111111000 O"
b1000 |
b1000 A
b1000 x
b1000 5"
b1000 7"
b10000000000100100 D"
b1000 W"
b10000000000100100 \"
0R
b10000000000100100 9
b10000000000100100 t
b10000000000100100 @"
b10000000000100100 T"
b1000 H
b1000 v
b1000 %"
b1000 3"
b1000 P"
1Q
b1000 8
b1000 T
b1000 b
b1000 #"
b0 e
b1000 3
b1000 U
b1000 c
b1000 !"
b100000010010010000100011 -"
0+
0!
b100000010010010000100011 -
b100000010010010000100011 ~
b100000010010010000100011 '
b0 $
#60000
b10000000000100100 <
b10000000000100100 ;"
b10000000000100100 E"
b10000000000100100 >"
b10000000000100100 @
b10000000000100100 :"
b10000000000100100 A"
b10000000000101000 D"
b10000000000100100 C"
b10000000000100100 ["
b10000000000101000 \"
b10000000000101000 9
b10000000000101000 t
b10000000000101000 @"
b10000000000101000 T"
b10000000000100100 :
b10000000000100100 r
b10000000000100100 ?"
b10000000000100100 S"
b10000000000100000 &
b10000000000100000 ;
b10000000000100000 s
b10000000000100000 u
b10000000000100000 G"
1R
0Q
1+
#65000
b1000000000110000000000000000 <"
b1000000000110000000000000000 V"
b1000000000110000000000000000 #
b1000000000110000000000000000 M
b1000000000110000000000000000 y
b1000000000110000000000000000 9"
b1000000000110000000000000000 O"
b10000 |
b10000 A
b10000 x
b10000 5"
b10000 7"
b10000000000110000 D"
b10000 W"
b10000000000110000 \"
b10000000000110000 9
b10000000000110000 t
b10000000000110000 @"
b10000000000110000 T"
b10000 H
b10000 v
b10000 %"
b10000 3"
b10000 P"
0S
0(
0R
b10011 ."
15
b10011 2"
b10011 ,"
b10011 0"
b10011 /"
0*
0B
b10011 1"
b1000000000110000000000000000 1
b1000000000110000000000000000 Y
b1000000000110000000000000000 i
b1000000000110000000000000000 U"
b10011 Z"
b0 )"
b10011 +"
b0 J"
b11 O
b0 P
1Q
b10011 ?
b10011 $"
b10011 R"
b0 J
b0 '"
b0 H"
b10000 3
b10000 U
b10000 c
b10000 !"
b1000000010000010000010011 -"
0+
b1000000010000010000010011 -
b1000000010000010000010011 ~
b1000000010000010000010011 '
b0 $
#70000
b10000000000101000 <
b10000000000101000 ;"
b10000000000101000 E"
b10000000000101000 >"
b10000000000101000 @
b10000000000101000 :"
b10000000000101000 A"
b10000000000110100 D"
b10000000000101000 C"
b10000000000101000 ["
b10000000000110100 \"
b1000000000110000000000000000000000000000000000000000000000000000000000000000000000000000000000000000000000000000000000000000000000000000000000000000000000000000000000000000000000000000000000001000000000101111111111110000 f
b10000000001100000000000000000000000000000000000000000000000000000000000000000000000000000000000000000000000000000000000000000000000000000000000000000000000000000000000000000000000000000000000010000000001011111111111100000000000000000001000000000000100000000000000000000000000000000000 m
b10000000000110100 9
b10000000000110100 t
b10000000000110100 @"
b10000000000110100 T"
b10000000000101000 :
b10000000000101000 r
b10000000000101000 ?"
b10000000000101000 S"
b10000000000100100 &
b10000000000100100 ;
b10000000000100100 s
b10000000000100100 u
b10000000000100100 G"
b10000000001100000000000000000000000000000000000000000000000000000000000000000000000000000000000000000000000000000000000000000000000000000000000000000000000000000000000000000000000000000000000010000000001011111111111100000000000000000001000000000000100000000000000000000000000000000000 n
b100011111 q
b100000 p
1R
0Q
1+
#75000
b1000000000101111111111110000 <"
b1000000000101111111111110000 V"
b1000000000101111111111110000 #
b1000000000101111111111110000 M
b1000000000101111111111110000 y
b1000000000101111111111110000 9"
b1000000000101111111111110000 O"
b111 }
b0 |
b0 A
b0 x
b0 5"
b1000000000010000000000000000 7"
06"
b1000000000100000000000100100 D"
0R
b110111 ."
b110111 2"
0L
b110111 ,"
b110111 0"
b110111 /"
b110111 1"
b1000000000010000000000000000 1
b1000000000010000000000000000 Y
b1000000000010000000000000000 i
b1000000000010000000000000000 U"
b1000000000010000000000000000 W"
b1000000000100000000000100100 \"
b110111 Z"
b111 N
b111 z
b111 ("
b100 *"
b110111 +"
b1000000000100000000000100100 9
b1000000000100000000000100100 t
b1000000000100000000000100100 @"
b1000000000100000000000100100 T"
b1000000000010000000000000000 H
b1000000000010000000000000000 v
b1000000000010000000000000000 %"
b1000000000010000000000000000 3"
b1000000000010000000000000000 P"
1Q
b110111 ?
b110111 $"
b110111 R"
b100 I
b100 &"
b1111 8
b1111 T
b1111 b
b1111 #"
b10000000001100000000000000000000000000000000000000000000000000000000000000000000000000000000000000000000000000000000000000000000000000000000000000000000000000000000000000000000000000000000000010000000001011111111111100000000000000000001000000000000100000000000000000000000000000000000 e
b0 3
b0 U
b0 c
b0 !"
b1000000000010000011110110111 -"
0+
b1000000000010000011110110111 -
b1000000000010000011110110111 ~
b1000000000010000011110110111 '
b0 $
#80000
b10000000000101100 <
b10000000000101100 ;"
b10000000000101100 E"
b10000000000101100 >"
b10000000000101100 @
b10000000000101100 :"
b10000000000101100 A"
b1000000000100000000000101000 D"
b10000000000101100 C"
b10000000000101100 ["
b1000000000100000000000101000 \"
b100000000001000000000000000000000000000000000000000000000000000000000000000000000000000000000000000000000000000000000000000000000000000000000000000000000000000000000000000000000000000000000000000000000000000000000000000000001000000000110000000000000000000000000000000000000000000000000000000000000000000000000000000000000000000000000000000000000000000000000000000000000000000000000000000000000000000000000000000000001000000000101111111111110000 f
b1000000000010000000000000000000000000000000000000000000000000000000000000000000000000000000000000000000000000000000000000000000000000000000000000000000000000000000000000000000000000000000000000000000000000000000000000000000010000000001100000000000000000000000000000000000000000000000000000000000000000000000000000000000000000000000000000000000000000000000000000000000000000000000000000000000000000000000000000000000010000000001011111111111100000000000000000001000000000000100000000000000000000000000000000000 e
b1000000000010000000000000000000000000000000000000000000000000000000000000000000000000000000000000000000000000000000000000000000000000000000000000000000000000000000000000000000000000000000000000000000000000000000000000000000010000000001100000000000000000000000000000000000000000000000000000000000000000000000000000000000000000000000000000000000000000000000000000000000000000000000000000000000000000000000000000000000010000000001011111111111100000000000000000001000000000000100000000000000000000000000000000000 m
b1000000000100000000000101000 9
b1000000000100000000000101000 t
b1000000000100000000000101000 @"
b1000000000100000000000101000 T"
b10000000000101100 :
b10000000000101100 r
b10000000000101100 ?"
b10000000000101100 S"
b10000000000101000 &
b10000000000101000 ;
b10000000000101000 s
b10000000000101000 u
b10000000000101000 G"
b1000000000010000000000000000000000000000000000000000000000000000000000000000000000000000000000000000000000000000000000000000000000000000000000000000000000000000000000000000000000000000000000000000000000000000000000000000000010000000001100000000000000000000000000000000000000000000000000000000000000000000000000000000000000000000000000000000000000000000000000000000000000000000000000000000000000000000000000000000000010000000001011111111111100000000000000000001000000000000100000000000000000000000000000000000 n
b111111111 q
b100000 p
1R
0Q
1+
#85000
b1000000000010000000000000000 {
b1000000000010000000000000000 7
b1000000000010000000000000000 [
b1000000000010000000000000000 w
b1000000000010000000000000000 <"
b1000000000010000000000000000 V"
b1000000000010000000000000000 X
b1000000000010000000000000000 h
b1000000000010000000000000000 #
b1000000000010000000000000000 M
b1000000000010000000000000000 y
b1000000000010000000000000000 9"
b1000000000010000000000000000 O"
b0 }
b0 |
b0 A
b0 x
b0 5"
b0 7"
16"
b10000000000101000 D"
0R
b10011 ."
b10011 2"
1L
b10011 ,"
b10011 0"
b10011 /"
b10011 1"
b1000000000010000000000000000 1
b1000000000010000000000000000 Y
b1000000000010000000000000000 i
b1000000000010000000000000000 U"
b0 W"
b10000000000101000 \"
b10011 Z"
b0 N
b0 z
b0 ("
b0 *"
b10011 +"
b10000000000101000 9
b10000000000101000 t
b10000000000101000 @"
b10000000000101000 T"
b0 H
b0 v
b0 %"
b0 3"
b0 P"
1Q
b10011 ?
b10011 $"
b10011 R"
b0 I
b0 &"
b1010 8
b1010 T
b1010 b
b1010 #"
b1000000000010000000000000000 f
b1111 4
b1111 V
b1111 d
b1111 ""
b1111000010100010011 -"
0+
b1111000010100010011 -
b1111000010100010011 ~
b1111000010100010011 '
b0 $
#90000
b10000000000110000 <
b10000000000110000 ;"
b10000000000110000 E"
b10000000000110000 >"
b10000000000110000 @
b10000000000110000 :"
b10000000000110000 A"
b10000000000101100 D"
b10000000000110000 C"
b10000000000110000 ["
b10000000000101100 \"
b1000000000010000000000000000000000000000000000000000000000000000000000000000000000000000000000000000000000000000000000000000000000000000000000000000000000000000100000000001000000000000000000000000000000000000000000000000000010000000001100000000000000000000000000000000000000000000000000000000000000000000000000000000000000000000000000000000000000000000000000000000000000000000000000000000000000000000000000000000000010000000001011111111111100000000000000000001000000000000100000000000000000000000000000000000 e
b1000000000010000000000000000000000000000000000000000000000000000000000000000000000000000000000000000000000000000000000000000000000000000000000000000000000000000100000000001000000000000000000000000000000000000000000000000000010000000001100000000000000000000000000000000000000000000000000000000000000000000000000000000000000000000000000000000000000000000000000000000000000000000000000000000000000000000000000000000000010000000001011111111111100000000000000000001000000000000100000000000000000000000000000000000 m
b10000000000101100 9
b10000000000101100 t
b10000000000101100 @"
b10000000000101100 T"
b10000000000110000 :
b10000000000110000 r
b10000000000110000 ?"
b10000000000110000 S"
b10000000000101100 &
b10000000000101100 ;
b10000000000101100 s
b10000000000101100 u
b10000000000101100 G"
b1000000000010000000000000000000000000000000000000000000000000000000000000000000000000000000000000000000000000000000000000000000000000000000000000000000000000000100000000001000000000000000000000000000000000000000000000000000010000000001100000000000000000000000000000000000000000000000000000000000000000000000000000000000000000000000000000000000000000000000000000000000000000000000000000000000000000000000000000000000010000000001011111111111100000000000000000001000000000000100000000000000000000000000000000000 n
b101011111 q
b100000 p
1R
0Q
1+
